<?xml version="1.0" encoding="utf-8"?>
<!-- Generator: Adobe Illustrator 19.2.1, SVG Export Plug-In . SVG Version: 6.00 Build 0)  -->
<svg version="1.1" id="Layer_1" xmlns="http://www.w3.org/2000/svg" xmlns:xlink="http://www.w3.org/1999/xlink" x="0px" y="0px"
   viewBox="0 0 35 25" style="enable-background:new 0 0 35 25;" xml:space="preserve" height="60px" width="60px">
<style type="text/css">
  .st0{fill:#EA7400;}
</style>
<g>
  <path class="st0" d="M17.2,2.3C11.6,2.3,7,6.9,7,12.5s4.6,10.2,10.2,10.2c5.7,0,10.2-4.6,10.2-10.2S22.8,2.3,17.2,2.3z"/>
  <path class="st0" d="M17.2,0.1c-6.8,0-12.3,5.5-12.3,12.3s5.5,12.3,12.3,12.3s12.3-5.5,12.3-12.3S24,0.1,17.2,0.1z M17.3,23.8
    C11.1,23.8,6,18.7,6,12.5C6,6.2,11,1.2,17.2,1.2c6.3,0,11.3,5,11.4,11.3C28.6,18.7,23.5,23.8,17.3,23.8z"/>
</g>
</svg>
